{
    "app-id" : "ca.dylanmc.syncthing-gnome",
    "runtime" : "org.gnome.Platform",
    "runtime-version" : "3.38",
    "sdk" : "org.gnome.Sdk",
    "command" : "syncthing-gnome",
    "finish-args" : [
        "--share=network",
        "--share=ipc",
        "--socket=fallback-x11",
        "--socket=wayland"
    ],
    "cleanup" : [
        "/include",
        "/lib/pkgconfig",
        "/man",
        "/share/doc",
        "/share/gtk-doc",
        "/share/man",
        "/share/pkgconfig",
        "/share/vala",
        "*.la",
        "*.a"
    ],
    "modules" : [
        {
	    "name" : "libhandy",
	    "buildsystem" : "meson",
	    "config-opts" : [
		"-Dprofiling=false",
		"-Dintrospection=enabled",
		"-Dgtk_doc=false",
		"-Dtests=false",
		"-Dexamples=false",
		"-Dvapi=true",
		"-Dglade_catalog=disabled"
	    ],
	    "sources" : [
		{
		    "type" : "git",
		    "url" : "https://gitlab.gnome.org/GNOME/libhandy",
		    "tag" : "1.0.3"
		}
	    ]
	},
        {
            "name" : "syncthing-gnome",
            "builddir" : true,
            "buildsystem" : "meson",
            "sources" : [
                {
                    "type" : "git",
                    "url" : "file:///var/home/dylan/Code/dylanmccall/syncthing-gnome"
                }
            ]
        }
    ]
}
